{
  "seed": 17103878227305873149,
  "options_preset": {
    "Custom": {
      "level": "Simple",
      "properties": null
    }
  },
  "players": [
    {
      "Tcp": {
        "host": null,
        "port": 31001,
        "accept_timeout": null,
        "timeout": null,
        "token": null
      }
    },
    "Quickstart"
  ]
}

15952928041088153296